{
    "name": "Assembly2",
    "rootNamespace": "Assembly2",
    "references": [
        "GUID:4ff86b72718b6664b9ab3ea011089486"
    ],
    "includePlatforms": [
        "Editor",
        "LinuxStandalone64",
        "macOSStandalone",
        "WebGL",
        "WindowsStandalone32",
        "WindowsStandalone64"
    ],
    "excludePlatforms": [],
    "allowUnsafeCode": false,
    "overrideReferences": false,
    "precompiledReferences": [],
    "autoReferenced": true,
    "defineConstraints": [],
    "versionDefines": [],
    "noEngineReferences": false
}